Computação Reconfigurável/Clock/simulation/qsim/Clock.msim.vcd
$comment
	File created using the following command:
		vcd file Clock.msim.vcd -direction
$end
$date
	Mon Dec 05 19:58:14 2016
$end
$version
	ModelSim Version 10.3d
$end
$timescale
	1ps
$end

$scope module Clock_vlg_vec_tst $end
$var reg 1 ! clockplaca $end
$var wire 1 " clk $end
$var wire 1 # sampler $end

$scope module i1 $end
$var wire 1 $ gnd $end
$var wire 1 % vcc $end
$var wire 1 & unknown $end
$var tri1 1 ' devclrn $end
$var tri1 1 ( devpor $end
$var tri1 1 ) devoe $end
$var wire 1 * clk~output_o $end
$var wire 1 + clockplaca~input_o $end
$var wire 1 , clockplaca~inputclkctrl_outclk $end
$var wire 1 - indice[0]~2_combout $end
$var wire 1 . indice[1]~0_combout $end
$var wire 1 / indice[2]~1_combout $end
$var wire 1 0 x~0_combout $end
$var wire 1 1 indice [2] $end
$var wire 1 2 indice [1] $end
$var wire 1 3 indice [0] $end
$upscope $end
$upscope $end
$enddefinitions $end
#0
$dumpvars
0!
0"
x#
0$
1%
x&
1'
1(
1)
0*
0+
0,
1-
0.
0/
00
03
02
01
$end
#5000
1!
1+
0#
1,
10
1*
1"
13
1.
0-
#10000
0!
0+
1#
0,
00
0*
0"
#15000
1!
1+
0#
1,
10
1*
1"
12
03
1-
#20000
0!
0+
1#
0,
00
0*
0"
#25000
1!
1+
0#
1,
10
1*
1"
13
00
1/
0.
0-
0*
0"
#30000
0!
0+
1#
0,
10
1*
1"
#35000
1!
1+
0#
1,
00
0*
0"
11
02
03
1-
#40000
0!
0+
1#
0,
10
1*
1"
#45000
1!
1+
0#
1,
00
0*
0"
13
1.
0-
#50000
0!
0+
1#
0,
10
1*
1"
#55000
1!
1+
0#
1,
00
0*
0"
12
03
10
1-
1*
1"
#60000
0!
0+
1#
0,
00
0*
0"
#65000
1!
1+
0#
1,
10
1*
1"
13
0/
0.
0-
#70000
0!
0+
1#
0,
00
0*
0"
#75000
1!
1+
0#
1,
10
1*
1"
01
02
03
1-
#80000
0!
0+
1#
0,
00
0*
0"
#85000
1!
1+
0#
1,
10
1*
1"
13
1.
0-
#90000
0!
0+
1#
0,
00
0*
0"
#95000
1!
1+
0#
1,
10
1*
1"
12
03
1-
#100000
0!
0+
1#
0,
00
0*
0"
#105000
1!
1+
0#
1,
10
1*
1"
13
00
1/
0.
0-
0*
0"
#110000
0!
0+
1#
0,
10
1*
1"
#115000
1!
1+
0#
1,
00
0*
0"
11
02
03
1-
#120000
0!
0+
1#
0,
10
1*
1"
#125000
1!
1+
0#
1,
00
0*
0"
13
1.
0-
#130000
0!
0+
1#
0,
10
1*
1"
#135000
1!
1+
0#
1,
00
0*
0"
12
03
10
1-
1*
1"
#140000
0!
0+
1#
0,
00
0*
0"
#145000
1!
1+
0#
1,
10
1*
1"
13
0/
0.
0-
#150000
0!
0+
1#
0,
00
0*
0"
#155000
1!
1+
0#
1,
10
1*
1"
01
02
03
1-
#160000
0!
0+
1#
0,
00
0*
0"
#165000
1!
1+
0#
1,
10
1*
1"
13
1.
0-
#170000
0!
0+
1#
0,
00
0*
0"
#175000
1!
1+
0#
1,
10
1*
1"
12
03
1-
#180000
0!
0+
1#
0,
00
0*
0"
#185000
1!
1+
0#
1,
10
1*
1"
13
00
1/
0.
0-
0*
0"
#190000
0!
0+
1#
0,
10
1*
1"
#195000
1!
1+
0#
1,
00
0*
0"
11
02
03
1-
#200000
0!
0+
1#
0,
10
1*
1"
#205000
1!
1+
0#
1,
00
0*
0"
13
1.
0-
#210000
0!
0+
1#
0,
10
1*
1"
#215000
1!
1+
0#
1,
00
0*
0"
12
03
10
1-
1*
1"
#220000
0!
0+
1#
0,
00
0*
0"
#225000
1!
1+
0#
1,
10
1*
1"
13
0/
0.
0-
#230000
0!
0+
1#
0,
00
0*
0"
#235000
1!
1+
0#
1,
10
1*
1"
01
02
03
1-
#240000
0!
0+
1#
0,
00
0*
0"
#245000
1!
1+
0#
1,
10
1*
1"
13
1.
0-
#250000
0!
0+
1#
0,
00
0*
0"
#255000
1!
1+
0#
1,
10
1*
1"
12
03
1-
#260000
0!
0+
1#
0,
00
0*
0"
#265000
1!
1+
0#
1,
10
1*
1"
13
00
1/
0.
0-
0*
0"
#270000
0!
0+
1#
0,
10
1*
1"
#275000
1!
1+
0#
1,
00
0*
0"
11
02
03
1-
#280000
0!
0+
1#
0,
10
1*
1"
#285000
1!
1+
0#
1,
00
0*
0"
13
1.
0-
#290000
0!
0+
1#
0,
10
1*
1"
#295000
1!
1+
0#
1,
00
0*
0"
12
03
10
1-
1*
1"
